<?xml version="1.0" encoding="utf-8"?>
<!-- Generator: Adobe Illustrator 21.0.2, SVG Export Plug-In . SVG Version: 6.00 Build 0)  -->
<svg version="1.1" id="Layer_1" xmlns="http://www.w3.org/2000/svg" xmlns:xlink="http://www.w3.org/1999/xlink" x="0px" y="0px"
	 viewBox="0 0 67.5 70.8" style="enable-background:new 0 0 67.5 70.8;" xml:space="preserve">
<style type="text/css">
	.st0{fill:none;stroke:#FFFFFF;stroke-width:2;stroke-miterlimit:10;}
	.st1{fill:#FFFFFF;}
</style>
<g>
	<path class="st0" d="M12.6,69.7"/>
	<g>
		<path class="st0" d="M23.3,47.2"/>
		
			<rect x="53" y="60" transform="matrix(0.9955 -9.459607e-02 9.459607e-02 0.9955 -5.8928 5.3952)" class="st1" width="2" height="9.7"/>
		<path class="st0" d="M45.1,47.2"/>
	</g>
	<path class="st0" d="M55.1,69.6"/>
	<path class="st1" d="M67.5,70.8H35.6v-2h29.3l-2.1-8.5c-2.3-10-17.5-11.5-17.6-11.5l0.2-2c0.7,0.1,16.8,1.6,19.4,13.1L67.5,70.8z"
		/>
	<g>
		<path class="st0" d="M44.2,47.2"/>
		
			<rect x="8.6" y="63.9" transform="matrix(9.471693e-02 -0.9955 0.9955 9.471693e-02 -52.3434 72.1451)" class="st1" width="9.7" height="2"/>
		<path class="st0" d="M22.4,47.2"/>
	</g>
	<path class="st1" d="M37.3,70.8H0l2.7-11c2.6-11.4,18.8-13,19.5-13l0.2,2c-0.2,0-15.4,1.5-17.7,11.5l-2.1,8.6h34.7V70.8z"/>
	<path class="st0" d="M34,44"/>
	<path class="st0" d="M34,44"/>
	<g>
		<path class="st1" d="M43.4,44h-2v-3.6H44c0.3,0,3.4-0.1,3.4-2.6l1.6-17.7l2,0.2L49.3,38c0,3.5-3.5,4.5-5.3,4.5h-0.6V44z"/>
		<path class="st1" d="M26.8,44h-2v-1.6h-0.7c-1.8,0-5.3-1-5.4-4.5l-1.3-10.6l2-0.2l1.3,10.8c0,2.5,3.2,2.6,3.4,2.6h2.6V44z"/>
	</g>
	<path class="st0" d="M22.5,14.6"/>
	<path class="st0" d="M23.2,15.4"/>
	<path class="st0" d="M23.3,16.8"/>
	<g>
		<path class="st1" d="M42.4,28h-2c0-0.6-0.5-1.1-1.1-1.1s-1.1,0.5-1.1,1.1h-2c0-1.7,1.4-3.1,3.1-3.1C41.1,25,42.4,26.3,42.4,28z"/>
		<path class="st1" d="M31.9,28h-2c0-0.6-0.5-1.1-1.1-1.1s-1.1,0.5-1.1,1.1h-2c0-1.7,1.4-3.1,3.1-3.1C30.5,25,31.9,26.3,31.9,28z"/>
	</g>
	<g>
		<path class="st1" d="M34.1,37c-2.7,0-5.2-0.7-7-1.9l1.1-1.7c1.5,1,3.6,1.6,5.9,1.6c2.3,0,4.4-0.6,5.9-1.6l1.1,1.7
			C39.3,36.3,36.7,37,34.1,37z"/>
	</g>
	<path class="st1" d="M39.7,57.8l-5.9-7.1l0.8-0.6c0.1-0.1,2.2-1.6,4.5-2.9c2-1.1,3.1-3.6,3.1-3.7l0.8-1.9l1,1.8
		c0,0,1.4,2.6,2.2,4.1c1,2-0.4,4.3-0.4,4.4l-0.2,0.2L39.7,57.8z M36.6,51l3.2,3.8l4.3-4.1c0.3-0.5,0.7-1.6,0.3-2.4
		c-0.4-0.7-0.9-1.7-1.3-2.5c-0.7,1-1.7,2.2-3,2.9C38.7,49.6,37.4,50.4,36.6,51z"/>
	<path class="st1" d="M28.6,57.8l-6.1-5.9c-0.1-0.1-1.4-2.4-0.4-4.4c0.8-1.6,2.2-4.1,2.2-4.1l1-1.8l0.8,1.9c0,0,1.1,2.6,3.1,3.7
		c2.4,1.3,4.4,2.9,4.5,2.9l0.8,0.6L28.6,57.8z M24.2,50.7l4.3,4.1l3.2-3.8c-0.8-0.6-2.1-1.4-3.5-2.2c-1.4-0.8-2.4-2-3-2.9
		c-0.4,0.8-0.9,1.7-1.3,2.5C23.5,49.1,23.9,50.2,24.2,50.7z"/>
	<path class="st1" d="M16.7,23.4c-1.2-2.5-0.6-8.3-0.1-9.8c1.5-5.4,6.2-10,9.7-12.2l2-1.3l-0.5,2.3c-0.3,1.5-0.1,2,0.1,2.1
		c0.5,0.5,2.8,0.1,4.9-0.3c2.1-0.4,4.6-0.9,7.3-1c0,0,0.1,0,0.1,0c3.4,0,9.6,3.3,10.6,6.2c0.3,1.1,0,2.1-1,2.8
		c-0.1,0-0.1,0.1-0.1,0.1c0.1,0.5,1.9,1.9,2.8,2.6c1.8,1.4,2.7,2.2,2.8,3.1c0,0.4-0.1,0.8-0.4,1.1l-0.1,0.1l-0.9,0.7
		c-0.4,0.3-8.3,5.6-13.9,2.2c-5.8-3.5-12.9-7.4-16.7-8.6c0.4,1.5,0.5,2.9-0.5,3.5c-0.2,0.1-0.4,0.2-0.7,0.4
		c-1.2,0.6-3.2,1.6-3.6,5.1c0,0,0,0,0,0.1l0,0c0,0.1,0,0.1,0,0.2l-0.3,0L16.7,23.4z M20.2,10.9l1.6,0.1c4.7,0.4,17.8,8.3,19.2,9.2
		c4.5,2.7,11.6-2,11.7-2.1L53,18c-0.4-0.4-1.2-1.1-1.8-1.5c-1.9-1.5-3.6-2.9-3.6-4.4c0-0.4,0.2-1.1,1-1.6c0.3-0.2,0.3-0.3,0.2-0.5
		c-0.5-1.7-5.7-4.9-8.7-4.8c-2.5,0-4.9,0.5-7,0.9c-3.1,0.6-5.4,1.1-6.7-0.2c-0.5-0.5-0.7-1.1-0.8-1.7c-2.9,2.3-6.1,5.9-7.2,9.9
		c-0.2,0.7-0.4,2.3-0.5,3.9c1.1-1.4,2.4-2.1,3.2-2.5c0.1-0.1,0.2-0.1,0.3-0.2c0.1-0.5-0.3-1.8-0.7-2.9L20.2,10.9z"/>
	<circle class="st1" cx="34.1" cy="55.4" r="1.3"/>
</g>
</svg>
