<svg version="1.1" id="logo" xmlns="http://www.w3.org/2000/svg" xmlns:xlink="http://www.w3.org/1999/xlink" x="0px" y="0px"
	 viewBox="0 0 99 22" style="enable-background:new 0 0 99 22;" xml:space="preserve">
<style type="text/css">
	.st0{fill:#231F20;}
</style>
<path class="st0" d="M58.1,21c0,0,0-1.2,0-5c0-1.8,0-8.8,0-10c0-2.8-2.8-5.5-8.6-5.5c-4,0-6.6,1.3-7.8,3V1c0-0.2-0.3-0.4-0.5-0.4
	c-0.2,0-0.3,0.2-0.4,0.4v15c0,3.8,0.1,5.1,0.1,5.1c0,0.2,0.2,0.4,0.4,0.4l0,0c0.2,0,0.4-0.2,0.4-0.4c0,0-0.1-1.2-0.1-5
	c0-3.5,0-7.5,0-9.3V5.9c0-2.1,2.3-4.5,7.8-4.6s7.7,2.5,7.7,4.6c0,1.2,0,8.2,0,10c0,3.8,0,5,0,5c0,0.2,0.3,0.4,0.5,0.4
	C57.9,21.3,58,21.1,58.1,21L58.1,21L58.1,21z M9.4,1.4c5.5,0,7.8,2.5,7.8,4.6c0,0.2,0.3,0.4,0.5,0.4c0.2,0,0.3-0.2,0.4-0.4
	c0-2.8-2.9-5.4-8.6-5.4S0.7,3.2,0.7,6v1.3C0.6,8.4,1,9.5,1.8,10.4c0.9,0.8,2,1.1,3.2,1.1h8.9c2.4,0.1,3.3,1,3.3,3.3l0,0V16
	c0,2.2-2.3,4.6-7.8,4.6s-7.8-2.4-7.8-4.5c0-0.2-0.2-0.4-0.4-0.4c-0.2,0-0.4,0.2-0.4,0.4c0,2.8,2.9,5.3,8.6,5.3S18,18.9,18,16v-1.3
	c0.1-1.1-0.3-2.2-1-3.1c-0.9-0.8-2-1.2-3.2-1.1H5c-2.4,0-3.4-1-3.4-3.3V6C1.6,3.9,3.8,1.4,9.4,1.4z M37.5,15.7
	c-0.2,0-0.4,0.2-0.4,0.4c0,2.1-2.1,4.5-7.7,4.5s-7.8-2.5-7.8-4.6V5.9c0-2.1,2.2-4.5,7.8-4.5s7.7,2.4,7.7,4.6v1.3
	c-0.1,2.3-0.8,3.2-3.2,3.3H30c-1.2-0.1-2.3,0.3-3.2,1.1c-0.8,0.8-1.2,1.9-1.1,3.1c0,0.2,0.1,0.4,0.4,0.5s0.4-0.1,0.5-0.4
	c0,0,0-0.1,0-0.1c0-2.3,1-3.2,3.4-3.3h3.9c1.1,0.1,2.2-0.3,3.1-1.1c0.7-0.9,1-2,1-3.1V6c0-2.8-2.8-5.4-8.5-5.4s-8.6,2.5-8.6,5.3V16
	c0,2.7,2.9,5.4,8.7,5.4s8.5-2.6,8.5-5.4C37.9,15.8,37.7,15.7,37.5,15.7L37.5,15.7z M69.6,1.4c5.5,0,7.8,2.5,7.8,4.6
	c0,0.2,0.3,0.4,0.5,0.4c0.2,0,0.3-0.2,0.4-0.4l0,0c0-2.8-2.9-5.4-8.6-5.4S60.9,3.2,60.9,6v1.3c-0.1,1.1,0.3,2.2,1.1,3.1
	c0.9,0.8,2,1.1,3.2,1.1h8.9c2.4,0.1,3.3,1,3.3,3.3V16c0,2.2-2.3,4.6-7.8,4.6s-7.8-2.4-7.8-4.5c0-0.2-0.2-0.4-0.4-0.4
	s-0.4,0.2-0.4,0.4c0,2.8,2.9,5.3,8.6,5.3s8.7-2.6,8.7-5.4v-1.3c0.1-1.1-0.3-2.2-1-3.1c-0.8-0.8-2-1.2-3.1-1.1h-8.9
	c-2.4,0-3.4-1-3.5-3.3V6C61.8,3.9,64,1.4,69.6,1.4z M94.1,10.6h-3.9c-1.2-0.1-2.3,0.3-3.2,1.1c-0.8,0.8-1.2,1.9-1.1,3.1
	c0,0.2,0.3,0.4,0.5,0.4c0.2,0,0.3-0.2,0.4-0.4c0.1-2.3,1.1-3.2,3.4-3.3h3.9c1.1,0.1,2.3-0.3,3.1-1.1c0.7-0.9,1.1-2,1-3.1V6
	c0-2.8-2.9-5.4-8.6-5.4S81,3.1,81,5.9V16c0,2.8,2.9,5.4,8.7,5.4s8.6-2.6,8.6-5.4c0-0.2-0.3-0.4-0.5-0.4c-0.2,0-0.3,0.2-0.4,0.4
	c0,2.1-2.3,4.5-7.8,4.6s-7.8-2.5-7.8-4.6V5.9c0-2.1,2.2-4.5,7.8-4.5s7.8,2.4,7.8,4.6v1.3C97.4,9.6,96.5,10.5,94.1,10.6z"/>
</svg>
